[
    {
        "id": 0,
        "questions": {
            "diagnosis": true,
            "confidence": true,
            "follow_up": true,
            "redo_with_classifier": false,
            "region_of_interest": false
        },
        "image_names": ["cat1.jpg", "cat2.jpg", "cat3.jpg"]
    },
    {
        "id": 1,
        "questions": {
            "diagnosis": true,
            "confidence": true,
            "follow_up": true,
            "redo_with_classifier": false,
            "region_of_interest": false
        },
        "image_names": ["cat2.jpg", "cat3.jpg", "cat4.jpg"]
    },
    {
        "id": 2,
        "questions": {
            "diagnosis": true,
            "confidence": true,
            "follow_up": true,
            "redo_with_classifier": false,
            "region_of_interest": false
        },
        "image_names": ["cat3.jpg", "cat4.jpg", "cat1.jpg"]
    }
]